%!PS-Adobe-3.0 EPSF-3.0
%%Creator: (MATLAB, The Mathworks, Inc. Version 8.6.0.267246 \(R2015b\). Operating System: Windows 7)
%%Title: ./Figures/Bankrun_Prob_.eps
%%CreationDate: 2016-10-15T13:00:01
%%Pages: (atend)
%%BoundingBox:    11     0   350   240
%%LanguageLevel: 3
%%EndComments
%%BeginProlog
%%BeginResource: procset (Apache XML Graphics Std ProcSet) 1.2 0
%%Version: 1.2 0
%%Copyright: (Copyright 2001-2003,2010 The Apache Software Foundation. License terms: http://www.apache.org/licenses/LICENSE-2.0)
/bd{bind def}bind def
/ld{load def}bd
/GR/grestore ld
/M/moveto ld
/LJ/setlinejoin ld
/C/curveto ld
/f/fill ld
/LW/setlinewidth ld
/GC/setgray ld
/t/show ld
/N/newpath ld
/CT/concat ld
/cp/closepath ld
/S/stroke ld
/L/lineto ld
/CC/setcmykcolor ld
/A/ashow ld
/GS/gsave ld
/RC/setrgbcolor ld
/RM/rmoveto ld
/ML/setmiterlimit ld
/re {4 2 roll M
1 index 0 rlineto
0 exch rlineto
neg 0 rlineto
cp } bd
/_ctm matrix def
/_tm matrix def
/BT { _ctm currentmatrix pop matrix _tm copy pop 0 0 moveto } bd
/ET { _ctm setmatrix } bd
/iTm { _ctm setmatrix _tm concat } bd
/Tm { _tm astore pop iTm 0 0 moveto } bd
/ux 0.0 def
/uy 0.0 def
/F {
  /Tp exch def
  /Tf exch def
  Tf findfont Tp scalefont setfont
  /cf Tf def  /cs Tp def
} bd
/ULS {currentpoint /uy exch def /ux exch def} bd
/ULE {
  /Tcx currentpoint pop def
  gsave
  newpath
  cf findfont cs scalefont dup
  /FontMatrix get 0 get /Ts exch def /FontInfo get dup
  /UnderlinePosition get Ts mul /To exch def
  /UnderlineThickness get Ts mul /Tt exch def
  ux uy To add moveto  Tcx uy To add lineto
  Tt setlinewidth stroke
  grestore
} bd
/OLE {
  /Tcx currentpoint pop def
  gsave
  newpath
  cf findfont cs scalefont dup
  /FontMatrix get 0 get /Ts exch def /FontInfo get dup
  /UnderlinePosition get Ts mul /To exch def
  /UnderlineThickness get Ts mul /Tt exch def
  ux uy To add cs add moveto Tcx uy To add cs add lineto
  Tt setlinewidth stroke
  grestore
} bd
/SOE {
  /Tcx currentpoint pop def
  gsave
  newpath
  cf findfont cs scalefont dup
  /FontMatrix get 0 get /Ts exch def /FontInfo get dup
  /UnderlinePosition get Ts mul /To exch def
  /UnderlineThickness get Ts mul /Tt exch def
  ux uy To add cs 10 mul 26 idiv add moveto Tcx uy To add cs 10 mul 26 idiv add lineto
  Tt setlinewidth stroke
  grestore
} bd
/QT {
/Y22 exch store
/X22 exch store
/Y21 exch store
/X21 exch store
currentpoint
/Y21 load 2 mul add 3 div exch
/X21 load 2 mul add 3 div exch
/X21 load 2 mul /X22 load add 3 div
/Y21 load 2 mul /Y22 load add 3 div
/X22 load /Y22 load curveto
} bd
/SSPD {
dup length /d exch dict def
{
/v exch def
/k exch def
currentpagedevice k known {
/cpdv currentpagedevice k get def
v cpdv ne {
/upd false def
/nullv v type /nulltype eq def
/nullcpdv cpdv type /nulltype eq def
nullv nullcpdv or
{
/upd true def
} {
/sametype v type cpdv type eq def
sametype {
v type /arraytype eq {
/vlen v length def
/cpdvlen cpdv length def
vlen cpdvlen eq {
0 1 vlen 1 sub {
/i exch def
/obj v i get def
/cpdobj cpdv i get def
obj cpdobj ne {
/upd true def
exit
} if
} for
} {
/upd true def
} ifelse
} {
v type /dicttype eq {
v {
/dv exch def
/dk exch def
/cpddv cpdv dk get def
dv cpddv ne {
/upd true def
exit
} if
} forall
} {
/upd true def
} ifelse
} ifelse
} if
} ifelse
upd true eq {
d k v put
} if
} if
} if
} forall
d length 0 gt {
d setpagedevice
} if
} bd
%%EndResource
%%BeginResource: procset (Apache XML Graphics EPS ProcSet) 1.0 0
%%Version: 1.0 0
%%Copyright: (Copyright 2002-2003 The Apache Software Foundation. License terms: http://www.apache.org/licenses/LICENSE-2.0)
/BeginEPSF { %def
/b4_Inc_state save def         % Save state for cleanup
/dict_count countdictstack def % Count objects on dict stack
/op_count count 1 sub def      % Count objects on operand stack
userdict begin                 % Push userdict on dict stack
/showpage { } def              % Redefine showpage, { } = null proc
0 setgray 0 setlinecap         % Prepare graphics state
1 setlinewidth 0 setlinejoin
10 setmiterlimit [ ] 0 setdash newpath
/languagelevel where           % If level not equal to 1 then
{pop languagelevel             % set strokeadjust and
1 ne                           % overprint to their defaults.
{false setstrokeadjust false setoverprint
} if
} if
} bd
/EndEPSF { %def
count op_count sub {pop} repeat            % Clean up stacks
countdictstack dict_count sub {end} repeat
b4_Inc_state restore
} bd
%%EndResource
%FOPBeginFontDict
%%IncludeResource: font Courier-Bold
%%IncludeResource: font Helvetica
%%IncludeResource: font Courier-BoldOblique
%%IncludeResource: font Courier-Oblique
%%IncludeResource: font Times-Roman
%%IncludeResource: font Helvetica-BoldOblique
%%IncludeResource: font Helvetica-Bold
%%IncludeResource: font Helvetica-Oblique
%%IncludeResource: font Times-BoldItalic
%%IncludeResource: font Courier
%%IncludeResource: font Times-Italic
%%IncludeResource: font Times-Bold
%%IncludeResource: font Symbol
%%IncludeResource: font ZapfDingbats
%FOPEndFontDict
%%BeginResource: encoding WinAnsiEncoding
/WinAnsiEncoding [
/.notdef /.notdef /.notdef /.notdef /.notdef
/.notdef /.notdef /.notdef /.notdef /.notdef
/.notdef /.notdef /.notdef /.notdef /.notdef
/.notdef /.notdef /.notdef /.notdef /.notdef
/.notdef /.notdef /.notdef /.notdef /.notdef
/.notdef /.notdef /.notdef /.notdef /.notdef
/.notdef /.notdef /space /exclam /quotedbl
/numbersign /dollar /percent /ampersand /quotesingle
/parenleft /parenright /asterisk /plus /comma
/hyphen /period /slash /zero /one
/two /three /four /five /six
/seven /eight /nine /colon /semicolon
/less /equal /greater /question /at
/A /B /C /D /E
/F /G /H /I /J
/K /L /M /N /O
/P /Q /R /S /T
/U /V /W /X /Y
/Z /bracketleft /backslash /bracketright /asciicircum
/underscore /quoteleft /a /b /c
/d /e /f /g /h
/i /j /k /l /m
/n /o /p /q /r
/s /t /u /v /w
/x /y /z /braceleft /bar
/braceright /asciitilde /bullet /Euro /bullet
/quotesinglbase /florin /quotedblbase /ellipsis /dagger
/daggerdbl /circumflex /perthousand /Scaron /guilsinglleft
/OE /bullet /Zcaron /bullet /bullet
/quoteleft /quoteright /quotedblleft /quotedblright /bullet
/endash /emdash /asciitilde /trademark /scaron
/guilsinglright /oe /bullet /zcaron /Ydieresis
/space /exclamdown /cent /sterling /currency
/yen /brokenbar /section /dieresis /copyright
/ordfeminine /guillemotleft /logicalnot /sfthyphen /registered
/macron /degree /plusminus /twosuperior /threesuperior
/acute /mu /paragraph /middot /cedilla
/onesuperior /ordmasculine /guillemotright /onequarter /onehalf
/threequarters /questiondown /Agrave /Aacute /Acircumflex
/Atilde /Adieresis /Aring /AE /Ccedilla
/Egrave /Eacute /Ecircumflex /Edieresis /Igrave
/Iacute /Icircumflex /Idieresis /Eth /Ntilde
/Ograve /Oacute /Ocircumflex /Otilde /Odieresis
/multiply /Oslash /Ugrave /Uacute /Ucircumflex
/Udieresis /Yacute /Thorn /germandbls /agrave
/aacute /acircumflex /atilde /adieresis /aring
/ae /ccedilla /egrave /eacute /ecircumflex
/edieresis /igrave /iacute /icircumflex /idieresis
/eth /ntilde /ograve /oacute /ocircumflex
/otilde /odieresis /divide /oslash /ugrave
/uacute /ucircumflex /udieresis /yacute /thorn
/ydieresis
] def
%%EndResource
%FOPBeginFontReencode
/Courier-Bold findfont
dup length dict begin
  {1 index /FID ne {def} {pop pop} ifelse} forall
  /Encoding WinAnsiEncoding def
  currentdict
end
/Courier-Bold exch definefont pop
/Helvetica findfont
dup length dict begin
  {1 index /FID ne {def} {pop pop} ifelse} forall
  /Encoding WinAnsiEncoding def
  currentdict
end
/Helvetica exch definefont pop
/Courier-BoldOblique findfont
dup length dict begin
  {1 index /FID ne {def} {pop pop} ifelse} forall
  /Encoding WinAnsiEncoding def
  currentdict
end
/Courier-BoldOblique exch definefont pop
/Courier-Oblique findfont
dup length dict begin
  {1 index /FID ne {def} {pop pop} ifelse} forall
  /Encoding WinAnsiEncoding def
  currentdict
end
/Courier-Oblique exch definefont pop
/Times-Roman findfont
dup length dict begin
  {1 index /FID ne {def} {pop pop} ifelse} forall
  /Encoding WinAnsiEncoding def
  currentdict
end
/Times-Roman exch definefont pop
/Helvetica-BoldOblique findfont
dup length dict begin
  {1 index /FID ne {def} {pop pop} ifelse} forall
  /Encoding WinAnsiEncoding def
  currentdict
end
/Helvetica-BoldOblique exch definefont pop
/Helvetica-Bold findfont
dup length dict begin
  {1 index /FID ne {def} {pop pop} ifelse} forall
  /Encoding WinAnsiEncoding def
  currentdict
end
/Helvetica-Bold exch definefont pop
/Helvetica-Oblique findfont
dup length dict begin
  {1 index /FID ne {def} {pop pop} ifelse} forall
  /Encoding WinAnsiEncoding def
  currentdict
end
/Helvetica-Oblique exch definefont pop
/Times-BoldItalic findfont
dup length dict begin
  {1 index /FID ne {def} {pop pop} ifelse} forall
  /Encoding WinAnsiEncoding def
  currentdict
end
/Times-BoldItalic exch definefont pop
/Courier findfont
dup length dict begin
  {1 index /FID ne {def} {pop pop} ifelse} forall
  /Encoding WinAnsiEncoding def
  currentdict
end
/Courier exch definefont pop
/Times-Italic findfont
dup length dict begin
  {1 index /FID ne {def} {pop pop} ifelse} forall
  /Encoding WinAnsiEncoding def
  currentdict
end
/Times-Italic exch definefont pop
/Times-Bold findfont
dup length dict begin
  {1 index /FID ne {def} {pop pop} ifelse} forall
  /Encoding WinAnsiEncoding def
  currentdict
end
/Times-Bold exch definefont pop
%FOPEndFontReencode
%%EndProlog
%%Page: 1 1
%%PageBoundingBox: 0 0 364 241
%%BeginPageSetup
[1 0 0 -1 0 241] CT
%%EndPageSetup
GS
[0.74949 0 0 0.75061 0 0.05511] CT
N
0 0 M
486 0 L
486 321 L
0 321 L
0 0 L
cp
clip
0.997 GC
N
0 0 486 321 re
f
GR
GS
[0.74949 0 0 0.75061 0 0.05511] CT
0.997 GC
N
0 0 486 321 re
f
GR
GS
[0.74949 0 0 0.75061 0 0.05511] CT
0.997 GC
N
63 277 M
440 277 L
440 24 L
63 24 L
cp
f
GR
GS
[0.74949 0 0 0.75061 0 0.05511] CT
0.846 GC
1 LJ
0.667 LW
N
114.409 277 M
114.409 24 L
S
GR
GS
[0.74949 0 0 0.75061 0 0.05511] CT
0.846 GC
1 LJ
0.667 LW
N
200.091 277 M
200.091 24 L
S
GR
GS
[0.74949 0 0 0.75061 0 0.05511] CT
0.846 GC
1 LJ
0.667 LW
N
285.773 277 M
285.773 24 L
S
GR
GS
[0.74949 0 0 0.75061 0 0.05511] CT
0.846 GC
1 LJ
0.667 LW
N
371.455 277 M
371.455 24 L
S
GR
GS
[0.74949 0 0 0.75061 0 0.05511] CT
0.846 GC
1 LJ
0.667 LW
N
440 277 M
63 277 L
S
GR
GS
[0.74949 0 0 0.75061 0 0.05511] CT
0.846 GC
1 LJ
0.667 LW
N
440 226.4 M
63 226.4 L
S
GR
GS
[0.74949 0 0 0.75061 0 0.05511] CT
0.846 GC
1 LJ
0.667 LW
N
440 175.8 M
63 175.8 L
S
GR
GS
[0.74949 0 0 0.75061 0 0.05511] CT
0.846 GC
1 LJ
0.667 LW
N
440 125.2 M
63 125.2 L
S
GR
GS
[0.74949 0 0 0.75061 0 0.05511] CT
0.846 GC
1 LJ
0.667 LW
N
440 74.6 M
63 74.6 L
S
GR
GS
[0.74949 0 0 0.75061 0 0.05511] CT
0.846 GC
1 LJ
0.667 LW
N
440 24 M
63 24 L
S
GR
GS
[0.74949 0 0 0.75061 0 0.05511] CT
0 GC
2 setlinecap
1 LJ
0.667 LW
N
63 277 M
440 277 L
S
GR
GS
[0.74949 0 0 0.75061 0 0.05511] CT
0 GC
2 setlinecap
1 LJ
0.667 LW
N
63 24 M
440 24 L
S
GR
GS
[0.74949 0 0 0.75061 0 0.05511] CT
0 GC
2 setlinecap
1 LJ
0.667 LW
N
114.409 277 M
114.409 273.23 L
S
GR
GS
[0.74949 0 0 0.75061 0 0.05511] CT
0 GC
2 setlinecap
1 LJ
0.667 LW
N
200.091 277 M
200.091 273.23 L
S
GR
GS
[0.74949 0 0 0.75061 0 0.05511] CT
0 GC
2 setlinecap
1 LJ
0.667 LW
N
285.773 277 M
285.773 273.23 L
S
GR
GS
[0.74949 0 0 0.75061 0 0.05511] CT
0 GC
2 setlinecap
1 LJ
0.667 LW
N
371.455 277 M
371.455 273.23 L
S
GR
GS
[0.74949 0 0 0.75061 0 0.05511] CT
0 GC
2 setlinecap
1 LJ
0.667 LW
N
114.409 24 M
114.409 27.77 L
S
GR
GS
[0.74949 0 0 0.75061 0 0.05511] CT
0 GC
2 setlinecap
1 LJ
0.667 LW
N
200.091 24 M
200.091 27.77 L
S
GR
GS
[0.74949 0 0 0.75061 0 0.05511] CT
0 GC
2 setlinecap
1 LJ
0.667 LW
N
285.773 24 M
285.773 27.77 L
S
GR
GS
[0.74949 0 0 0.75061 0 0.05511] CT
0 GC
2 setlinecap
1 LJ
0.667 LW
N
371.455 24 M
371.455 27.77 L
S
GR
GS
[0.74949 0 0 0.75061 85.74844 211.97653] CT
0 GC
/Helvetica 13 F
GS
[1 0 0 1 0 0] CT
-13 14 moveto 
1 -1 scale
(0.05) t 
GR
GR
GS
[0.74949 0 0 0.75061 149.96607 211.97653] CT
0 GC
/Helvetica 13 F
GS
[1 0 0 1 0 0] CT
-9.5 14 moveto 
1 -1 scale
(0.1) t 
GR
GR
GS
[0.74949 0 0 0.75061 214.18372 211.97653] CT
0 GC
/Helvetica 13 F
GS
[1 0 0 1 0 0] CT
-13 14 moveto 
1 -1 scale
(0.15) t 
GR
GR
GS
[0.74949 0 0 0.75061 278.40136 211.97653] CT
0 GC
/Helvetica 13 F
GS
[1 0 0 1 0 0] CT
-9.5 14 moveto 
1 -1 scale
(0.2) t 
GR
GR
GS
[0.74949 0 0 0.75061 188.49678 225.73765] CT
0 GC
/Helvetica 15 F
GS
[1 0 0 1 0 0] CT
-65.5 16 moveto 
1 -1 scale
(Capital requirement) t 
GR
GR
GS
[0.74949 0 0 0.75061 0 0.05511] CT
0 GC
2 setlinecap
1 LJ
0.667 LW
N
63 277 M
63 24 L
S
GR
GS
[0.74949 0 0 0.75061 0 0.05511] CT
0 GC
2 setlinecap
1 LJ
0.667 LW
N
440 277 M
440 24 L
S
GR
GS
[0.74949 0 0 0.75061 0 0.05511] CT
0 GC
2 setlinecap
1 LJ
0.667 LW
N
63 277 M
66.77 277 L
S
GR
GS
[0.74949 0 0 0.75061 0 0.05511] CT
0 GC
2 setlinecap
1 LJ
0.667 LW
N
63 226.4 M
66.77 226.4 L
S
GR
GS
[0.74949 0 0 0.75061 0 0.05511] CT
0 GC
2 setlinecap
1 LJ
0.667 LW
N
63 175.8 M
66.77 175.8 L
S
GR
GS
[0.74949 0 0 0.75061 0 0.05511] CT
0 GC
2 setlinecap
1 LJ
0.667 LW
N
63 125.2 M
66.77 125.2 L
S
GR
GS
[0.74949 0 0 0.75061 0 0.05511] CT
0 GC
2 setlinecap
1 LJ
0.667 LW
N
63 74.6 M
66.77 74.6 L
S
GR
GS
[0.74949 0 0 0.75061 0 0.05511] CT
0 GC
2 setlinecap
1 LJ
0.667 LW
N
63 24 M
66.77 24 L
S
GR
GS
[0.74949 0 0 0.75061 0 0.05511] CT
0 GC
2 setlinecap
1 LJ
0.667 LW
N
440 277 M
436.23 277 L
S
GR
GS
[0.74949 0 0 0.75061 0 0.05511] CT
0 GC
2 setlinecap
1 LJ
0.667 LW
N
440 226.4 M
436.23 226.4 L
S
GR
GS
[0.74949 0 0 0.75061 0 0.05511] CT
0 GC
2 setlinecap
1 LJ
0.667 LW
N
440 175.8 M
436.23 175.8 L
S
GR
GS
[0.74949 0 0 0.75061 0 0.05511] CT
0 GC
2 setlinecap
1 LJ
0.667 LW
N
440 125.2 M
436.23 125.2 L
S
GR
GS
[0.74949 0 0 0.75061 0 0.05511] CT
0 GC
2 setlinecap
1 LJ
0.667 LW
N
440 74.6 M
436.23 74.6 L
S
GR
GS
[0.74949 0 0 0.75061 0 0.05511] CT
0 GC
2 setlinecap
1 LJ
0.667 LW
N
440 24 M
436.23 24 L
S
GR
GS
[0.74949 0 0 0.75061 43.22057 207.97329] CT
0 GC
/Helvetica 13 F
GS
[1 0 0 1 0 0] CT
-8 5.5 moveto 
1 -1 scale
(0) t 
GR
GR
GS
[0.74949 0 0 0.75061 43.22057 169.99256] CT
0 GC
/Helvetica 13 F
GS
[1 0 0 1 0 0] CT
-19 5.5 moveto 
1 -1 scale
(0.5) t 
GR
GR
GS
[0.74949 0 0 0.75061 43.22057 132.01185] CT
0 GC
/Helvetica 13 F
GS
[1 0 0 1 0 0] CT
-8 5.5 moveto 
1 -1 scale
(1) t 
GR
GR
GS
[0.74949 0 0 0.75061 43.22057 94.03112] CT
0 GC
/Helvetica 13 F
GS
[1 0 0 1 0 0] CT
-19 5.5 moveto 
1 -1 scale
(1.5) t 
GR
GR
GS
[0.74949 0 0 0.75061 43.22057 56.0504] CT
0 GC
/Helvetica 13 F
GS
[1 0 0 1 0 0] CT
-8 5.5 moveto 
1 -1 scale
(2) t 
GR
GR
GS
[0.74949 0 0 0.75061 43.22057 18.06969] CT
0 GC
/Helvetica 13 F
GS
[1 0 0 1 0 0] CT
-19 5.5 moveto 
1 -1 scale
(2.5) t 
GR
GR
GS
[0 -0.75061 0.74949 0 25.98231 113.02139] CT
0 GC
/Helvetica 15 F
GS
[1 0 0 1 0 0] CT
-125.5 -4 moveto 
1 -1 scale
(Probability of bankrun per quarter \(%\)) t 
GR
GR
GS
[0.74949 0 0 0.75061 188.49684 16.00551] CT
0 GC
/Helvetica-Bold 15 F
GS
[1 0 0 1 0 0] CT
-215.5 -4 moveto 
1 -1 scale
(Probability of Bankrun as a Function of Capital Requirement) t 
GR
GR
GS
[0.74949 0 0 0.75061 0 0.05511] CT
0 GC
1 LJ
2.667 LW
N
63 95.726 M
97.273 107.49 L
131.545 139.747 L
165.818 193.763 L
200.091 245.881 L
234.364 270.675 L
268.636 275.862 L
302.909 276.874 L
337.182 277 L
371.455 277 L
405.727 99.647 L
440 59.546 L
S
GR
%%Trailer
%%Pages: 1
%%EOF
